…
    ## Retrieved 5000 records of 33712 (14%)

    ## Retrieved 10000 records of 33712 (29%) Retrieved 15000 records of 33712
    ## (44%) Retrieved 20000 records of 33712 (59%) Retrieved 25000 records of
    ## 33712 (74%) Retrieved 30000 records of 33712 (88%) Retrieved 33712 records
    ## of 33712 (100%)

``` r
spio %>% dplyr::group_by(species)%>% dplyr::summarize(n(), mean(decimalLatitude))
```

    ## # A tibble: 27 x 3
    ##    species           `n()` `mean(decimalLatitude)`
    ##    <chr>             <int>                   <dbl>
    ##  1 Spio aequalis        16                   -39.7
    ##  2 Spio armata        2917                    53.3
    ##  3 Spio arndti          20                    51.6
    ##  4 Spio bengalensis      2                    21.5
    ##  5 Spio blakei         282                   -29.2
    ##  6 Spio butleri         23                    42.7
    ##  7 Spio cirrifera       23                    48.7
    ##  8 Spio decorata      4651                    53.7
    ##  9 Spio filicornis   12891                    53.4
    ## 10 Spio goniocephala  1750                    53.8
    ## # … with 17 more rows
…
